<?xml version="1.0" encoding="UTF-8"?>
<svg width="100px" height="100px" viewBox="0 0 100 100" version="1.1" xmlns="http://www.w3.org/2000/svg" xmlns:xlink="http://www.w3.org/1999/xlink">
    <!-- Generator: Sketch 52.3 (67297) - http://www.bohemiancoding.com/sketch -->
    <title>influence-icon</title>
    <desc>Created with Sketch.</desc>
    <g id="Page-1" stroke="none" stroke-width="1" fill="none" fill-rule="evenodd">
        <g id="GitLab-First-Look" transform="translate(-404.000000, -1524.000000)">
            <g id="influence-icon" transform="translate(405.000000, 1525.000000)">
                <path d="M49,72 L49,88" id="Stroke-1" stroke="#333333" stroke-width="2" stroke-linecap="round" stroke-linejoin="round"></path>
                <path d="M49,11 L49,39" id="Stroke-2" stroke="#333333" stroke-width="2" stroke-linecap="round" stroke-linejoin="round"></path>
                <path d="M88,49 L73,49" id="Stroke-3" stroke="#333333" stroke-width="2" stroke-linecap="round" stroke-linejoin="round"></path>
                <path d="M63.417,63.417 L76.577,76.577" id="Stroke-4" stroke="#333333" stroke-width="2" stroke-linecap="round" stroke-linejoin="round"></path>
                <path d="M34.5,63.5 L21.423,76.577" id="Stroke-5" stroke="#333333" stroke-width="2" stroke-linecap="round" stroke-linejoin="round"></path>
                <polygon id="Fill-6" fill="#E24329" points="49.0039 66.5762 49.0039 66.5762 56.1139 44.9402 41.8939 44.9402"></polygon>
                <polygon id="Fill-7" fill="#FC6D26" points="48.999 66.5762 41.888 44.9402 31.932 44.9402"></polygon>
                <path d="M31.9287,44.9473 L29.7647,51.5213 C29.5687,52.1183 29.7807,52.7773 30.2977,53.1493 L48.9947,66.5833 L31.9287,44.9473 Z" id="Fill-8" fill="#FCA326"></path>
                <path d="M31.9307,44.9473 L41.8957,44.9473 L37.6077,31.9173 C37.3877,31.2503 36.4307,31.2503 36.2037,31.9173 L31.9307,44.9473 Z" id="Fill-10" fill="#E24329"></path>
                <polygon id="Fill-12" fill="#FC6D26" points="49.0039 66.5762 56.1139 44.9402 66.0789 44.9402"></polygon>
                <path d="M66.0713,44.9473 L68.2353,51.5213 C68.4313,52.1183 68.2193,52.7773 67.7023,53.1493 L49.0053,66.5753 L66.0713,44.9473 Z" id="Fill-14" fill="#FCA326"></path>
                <path d="M66.0771,44.9473 L56.1121,44.9473 L60.3921,31.9173 C60.6121,31.2503 61.5691,31.2503 61.7961,31.9173 L66.0771,44.9473 Z" id="Fill-16" fill="#E24329"></path>
                <polygon id="Stroke-18" stroke="#333333" stroke-width="2" stroke-linecap="round" stroke-linejoin="round" points="49.0039 66.5762 49.0039 66.5762 56.1139 44.9402 41.8939 44.9402"></polygon>
                <polygon id="Stroke-20" stroke="#333333" stroke-width="2" stroke-linecap="round" stroke-linejoin="round" points="48.999 66.5762 41.888 44.9402 31.932 44.9402"></polygon>
                <path d="M31.9287,44.9473 L29.7647,51.5213 C29.5687,52.1183 29.7807,52.7773 30.2977,53.1493 L48.9947,66.5833 L31.9287,44.9473 Z" id="Stroke-22" stroke="#333333" stroke-width="2" stroke-linecap="round" stroke-linejoin="round"></path>
                <path d="M31.9307,44.9473 L41.8957,44.9473 L37.6077,31.9173 C37.3877,31.2503 36.4307,31.2503 36.2037,31.9173 L31.9307,44.9473 Z" id="Stroke-24" stroke="#333333" stroke-width="2" stroke-linecap="round" stroke-linejoin="round"></path>
                <polygon id="Stroke-26" stroke="#333333" stroke-width="2" stroke-linecap="round" stroke-linejoin="round" points="49.0039 66.5762 56.1139 44.9402 66.0789 44.9402"></polygon>
                <path d="M66.0713,44.9473 L68.2353,51.5213 C68.4313,52.1183 68.2193,52.7773 67.7023,53.1493 L49.0053,66.5753 L66.0713,44.9473 Z" id="Stroke-28" stroke="#333333" stroke-width="2" stroke-linecap="round" stroke-linejoin="round"></path>
                <path d="M66.0771,44.9473 L56.1121,44.9473 L60.3921,31.9173 C60.6121,31.2503 61.5691,31.2503 61.7961,31.9173 L66.0771,44.9473 Z" id="Stroke-30" stroke="#333333" stroke-width="2" stroke-linecap="round" stroke-linejoin="round"></path>
                <path d="M54,5 C54,7.762 51.762,10 49,10 C46.238,10 44,7.762 44,5 C44,2.238 46.238,0 49,0 C51.762,0 54,2.238 54,5" id="Fill-32" fill="#FC6D26"></path>
                <path d="M54,5 C54,7.762 51.762,10 49,10 C46.238,10 44,7.762 44,5 C44,2.238 46.238,0 49,0 C51.762,0 54,2.238 54,5 Z" id="Stroke-34" stroke="#333333" stroke-width="2" stroke-linecap="round" stroke-linejoin="round"></path>
                <path d="M54,93 C54,95.762 51.762,98 49,98 C46.238,98 44,95.762 44,93 C44,90.238 46.238,88 49,88 C51.762,88 54,90.238 54,93" id="Fill-36" fill="#CCCCCC"></path>
                <path d="M54,93 C54,95.762 51.762,98 49,98 C46.238,98 44,95.762 44,93 C44,90.238 46.238,88 49,88 C51.762,88 54,90.238 54,93 Z" id="Stroke-38" stroke="#333333" stroke-width="2" stroke-linecap="round" stroke-linejoin="round"></path>
                <path d="M93,54 C90.238,54 88,51.762 88,49 C88,46.238 90.238,44 93,44 C95.762,44 98,46.238 98,49 C98,51.762 95.762,54 93,54" id="Fill-40" fill="#FC6D26"></path>
                <path d="M93,54 C90.238,54 88,51.762 88,49 C88,46.238 90.238,44 93,44 C95.762,44 98,46.238 98,49 C98,51.762 95.762,54 93,54 Z" id="Stroke-42" stroke="#333333" stroke-width="2" stroke-linecap="round" stroke-linejoin="round"></path>
                <path d="M5,54 C2.238,54 0,51.762 0,49 C0,46.238 2.238,44 5,44 C7.762,44 10,46.238 10,49 C10,51.762 7.762,54 5,54" id="Fill-44" fill="#FCA326"></path>
                <path d="M5,54 C2.238,54 0,51.762 0,49 C0,46.238 2.238,44 5,44 C7.762,44 10,46.238 10,49 C10,51.762 7.762,54 5,54 Z" id="Stroke-46" stroke="#333333" stroke-width="2" stroke-linecap="round" stroke-linejoin="round"></path>
                <path d="M21.4229,14.3516 C23.3749,16.3046 23.3749,19.4696 21.4229,21.4226 C19.4699,23.3746 16.3049,23.3746 14.3519,21.4226 C12.3999,19.4696 12.3999,16.3046 14.3519,14.3516 C16.3049,12.3996 19.4699,12.3996 21.4229,14.3516" id="Fill-48" fill="#CCCCCC"></path>
                <path d="M21.4229,14.3516 C23.3749,16.3046 23.3749,19.4696 21.4229,21.4226 C19.4699,23.3746 16.3049,23.3746 14.3519,21.4226 C12.3999,19.4696 12.3999,16.3046 14.3519,14.3516 C16.3049,12.3996 19.4699,12.3996 21.4229,14.3516 Z" id="Stroke-50" stroke="#333333" stroke-width="2" stroke-linecap="round" stroke-linejoin="round"></path>
                <path d="M83.6484,76.5771 C85.6004,78.5301 85.6004,81.6951 83.6484,83.6481 C81.6954,85.6001 78.5304,85.6001 76.5774,83.6481 C74.6254,81.6951 74.6254,78.5301 76.5774,76.5771 C78.5304,74.6251 81.6954,74.6251 83.6484,76.5771" id="Fill-52" fill="#FCA326"></path>
                <path d="M83.6484,76.5771 C85.6004,78.5301 85.6004,81.6951 83.6484,83.6481 C81.6954,85.6001 78.5304,85.6001 76.5774,83.6481 C74.6254,81.6951 74.6254,78.5301 76.5774,76.5771 C78.5304,74.6251 81.6954,74.6251 83.6484,76.5771 Z" id="Stroke-54" stroke="#333333" stroke-width="2" stroke-linecap="round" stroke-linejoin="round"></path>
                <path d="M83.6484,21.4229 C81.6954,23.3749 78.5304,23.3749 76.5774,21.4229 C74.6254,19.4699 74.6254,16.3049 76.5774,14.3519 C78.5304,12.3999 81.6954,12.3999 83.6484,14.3519 C85.6004,16.3049 85.6004,19.4699 83.6484,21.4229" id="Fill-56" fill="#E24329"></path>
                <path d="M83.6484,21.4229 C81.6954,23.3749 78.5304,23.3749 76.5774,21.4229 C74.6254,19.4699 74.6254,16.3049 76.5774,14.3519 C78.5304,12.3999 81.6954,12.3999 83.6484,14.3519 C85.6004,16.3049 85.6004,19.4699 83.6484,21.4229 Z" id="Stroke-58" stroke="#333333" stroke-width="2" stroke-linecap="round" stroke-linejoin="round"></path>
                <path d="M21.4229,83.6484 C19.4699,85.6004 16.3049,85.6004 14.3519,83.6484 C12.3999,81.6954 12.3999,78.5304 14.3519,76.5774 C16.3049,74.6254 19.4699,74.6254 21.4229,76.5774 C23.3749,78.5304 23.3749,81.6954 21.4229,83.6484" id="Fill-60" fill="#E24329"></path>
                <path d="M21.4229,83.6484 C19.4699,85.6004 16.3049,85.6004 14.3519,83.6484 C12.3999,81.6954 12.3999,78.5304 14.3519,76.5774 C16.3049,74.6254 19.4699,74.6254 21.4229,76.5774 C23.3749,78.5304 23.3749,81.6954 21.4229,83.6484 Z" id="Stroke-62" stroke="#333333" stroke-width="2" stroke-linecap="round" stroke-linejoin="round"></path>
                <path d="M25,49 L10,49" id="Stroke-64" stroke="#333333" stroke-width="2" stroke-linecap="round" stroke-linejoin="round"></path>
                <path d="M21.4229,21.4229 L30.4579,30.4579" id="Stroke-66" stroke="#333333" stroke-width="2" stroke-linecap="round" stroke-linejoin="round"></path>
                <path d="M76.5771,21.4229 L67.5421,30.4579" id="Stroke-68" stroke="#333333" stroke-width="2" stroke-linecap="round" stroke-linejoin="round"></path>
            </g>
        </g>
    </g>
</svg>